Chapter 5: Model LP • sfcr
…
Here we see how the tibble output provides a seamless integration with the dplyr tools that were loaded with the tidyverse packages:

lp2 <-
  lp2 %>%
  dplyr::mutate(
    BL = BLh * pbl,
    VYDr_r = V / YDr,
    BhV_r = Bh / V,
    BLV_r = BL / V
  )

# Check the newly created columns:
lp2 %>%
  dplyr::select(BL, VYDr_r, BhV_r, BLV_r)
#> # A tibble: 100 x 4
#>       BL VYDr_r BhV_r BLV_r
#>    <dbl>  <dbl> <dbl> <dbl>
#>  1  37.8  1.00  0.395 0.395
#>  2  37.8  1.00  0.395 0.395
#>  3  37.8  1.00  0.395 0.395
#>  4  37.8  1.00  0.395 0.395
#>  5  34.5  0.901 0.386 0.400
#>  6  35.3  0.920 0.391 0.405
#>  7  35.6  0.936 0.389 0.403
#>  8  35.9  0.949 0.388 0.402
#>  9  36.3  0.959 0.387 0.401
#> 10  36.7  0.967 0.387 0.401
#> # … with 90 more rows
…
#lp3_params[[17]] <- beta_g ~ 1

lp3_initial <- lp2_initial

Baseline

lp3 <- sfcr_baseline(
  lp3_eqs,
  external = lp3_external,
  periods = 100,
  initial = lp3_initial,
  hidden = c("Hs" = "Hh"))

lp3 %>% select(period, G, PSBR, everything())
#> # A tibble: 100 x 51
#>    period        G      PSBR        Y   YDr       TX     V       CG        C
#>     <int>    <dbl>     <dbl>    <dbl> <dbl>    <dbl> <dbl>    <dbl>    <dbl>
#>  1      1 1.00e-15  1.00e-15 1.00e-15  95.8 1.00e-15  95.8 1.00e-15 1.00e-15
#>  2      2 0.       -1.59e+ 1 9.58e+ 1  78.8 1.89e+ 1  78.8 0.       9.58e+ 1
#>  3      3 1.59e+ 1  5.26e- 4 9.47e+ 1  78.8 1.89e+ 1  78.8 0.       7.88e+ 1
#>  4      4 1.59e+ 1 -4.33e- 1 9.47e+ 1  78.3 1.88e+ 1  78.3 0.       7.88e+ 1
#>  5      5 1.59e+ 1 -3.49e- 1 9.42e+ 1  78.0 1.87e+ 1  78.0 0.       7.83e+ 1
#>  6      6 1.59e+ 1 -2.93e- 1 9.39e+ 1  77.7 1.87e+ 1  77.7 0.       7.80e+ 1
#>  7      7 1.59e+ 1 -2.45e- 1 9.36e+ 1  77.4 1.86e+ 1  77.4 0.       7.77e+ 1
#>  8      8 1.59e+ 1 -2.05e- 1 9.33e+ 1  77.2 1.86e+ 1  77.2 0.       7.74e+ 1
#>  9      9 1.59e+ 1 -1.71e- 1 9.31e+ 1  77.1 1.85e+ 1  77.1 0.       7.72e+ 1
#> 10     10 1.59e+ 1 -1.43e- 1 9.30e+ 1  76.9 1.85e+ 1  76.9 0.       7.71e+ 1
#> # … with 90 more rows, and 42 more variables: VE <dbl>, Hh <dbl>, Hd <dbl>,
#> #   Bd <dbl>, BLd <dbl>, Bh <dbl>, BLh <dbl>, Bs <dbl>, Hs <dbl>, Bcb <dbl>,
#> #   BLs <dbl>, ERrbl <dbl>, rbl <dbl>, CGE <dbl>, YDEr <dbl>, pebl <dbl>,
#> #   pbl <dbl>, TP <dbl>, zeta1 <dbl>, zeta2 <dbl>, zeta3 <dbl>, zeta4 <dbl>,
#> #   rb <dbl>, theta <dbl>, alpha1 <dbl>, alpha2 <dbl>, lambda20 <dbl>,
#> #   lambda22 <dbl>, lambda23 <dbl>, lambda24 <dbl>, lambda30 <dbl>,
#> #   lambda32 <dbl>, lambda33 <dbl>, lambda34 <dbl>, chi <dbl>, betae <dbl>,
#> #   beta <dbl>, top <dbl>, bot <dbl>, add <dbl>, betag <dbl>, add2 <dbl>
…
