Chapter 6: Models REG and OPEN • sfcr
…
# We have to initialize the interest rates now
open3_initial <- list(
  r_N ~ 0.025,
  r_S ~ 0.025
)

open3 <- sfcr_baseline(open3_eqs, open3_ext, periods = 100, initial = open3_initial,
                  hidden = c("deltaor_S" = "deltaor_N"), .hidden_tol = 0.01)

open3 %>% select(period, r_N, r_S)
#> # A tibble: 100 × 3
#>    period    r_N    r_S
#>     <int>  <dbl>  <dbl>
#>  1      1 0.025  0.025 
#>  2      2 0.0207 0.0293
#>  3      3 0.0171 0.0258
#>  4      4 0.0157 0.0244
#>  5      5 0.0150 0.0236
#>  6      6 0.0147 0.0233
#>  7      7 0.0145 0.0231
#>  8      8 0.0144 0.0231
#>  9      9 0.0145 0.0231
#> 10     10 0.0146 0.0232
#> # … with 90 more rows
…
