Chapter 12: Model Advanced OPEN • sfcr
…
Baseline

openfixr <- sfcr_baseline(
  openfixr_eqs,
  openfixr_ext,
  periods = 100,
  initial = open12_init,
  method = "Broyden"
)

openfixr %>%
  select(b_cb_ukuk_s, b_cb_ukuk_sa)
#> # A tibble: 100 × 2
#>    b_cb_ukuk_s b_cb_ukuk_sa
#>          <dbl>        <dbl>
#>  1       0.280        0.280
#>  2       0.280        0.280
#>  3       0.280        0.280
#>  4       0.280        0.280
#>  5       0.280        0.280
#>  6       0.280        0.280
#>  7       0.280        0.280
#>  8       0.280        0.280
#>  9       0.280        0.280
#> 10       0.280        0.280
#> # … with 90 more rows
…
